/* XPM */
static char * close_prelight_xpm[] = {
"30 30 20 1",
" 	c None",
".	c #D24726",
"+	c #E0836D",
"@	c #EFC0B4",
"#	c #D24A2A",
"$	c #D24928",
"%	c #EEBCB0",
"&	c #E28873",
"*	c #EEBDB0",
"=	c #FFFFFF",
"-	c #F0C3B8",
";	c #EEBDB1",
">	c #F0C3B9",
",	c #EFBEB3",
"'	c #F0C2B7",
")	c #D24929",
"!	c #EFBEB2",
"~	c #F0C4BA",
"{	c #EFBFB3",
"]	c #E1846E",
"..............................",
"..............................",
"..............................",
"..............................",
"..............................",
"..............................",
"..............................",
"..............................",
"..............................",
"..........+@#....$%&..........",
"..........*=-#..#-=;..........",
"..........$*=>#$,=')..........",
"...........$*=>@=')...........",
"............$!==>)............",
"............$,==~#............",
"...........$!=>{=')...........",
"..........$;=-#$!=')..........",
"..........;=-#..#-=*..........",
"..........]@#....#@]..........",
"..............................",
"..............................",
"..............................",
"..............................",
"..............................",
"..............................",
"..............................",
"..............................",
"..............................",
"..............................",
".............................."};
