/* XPM */
static char * top_left_inactive_xpm[] = {
"2 28 2 1",
" 	c None",
".	c #D24726",
"..",
"..",
"..",
"..",
"..",
"..",
"..",
"..",
"..",
"..",
"..",
"..",
"..",
"..",
"..",
"..",
"..",
"..",
"..",
"..",
"..",
"..",
"..",
"..",
"..",
"..",
"..",
".."};
