/* XPM */
static char * maximize_inactive_xpm[] = {
"30 30 3 1",
" 	c None",
".	c #0078D7",
"+	c #80BBEB",
"..............................",
"..............................",
"..............................",
"..............................",
"..............................",
"..............................",
"..............................",
"..............................",
"..............................",
"..............................",
"..............++..............",
"..............++..............",
"..............++..............",
"..............++..............",
"..........++++++++++..........",
"..........++++++++++..........",
"..............++..............",
"..............++..............",
"..............++..............",
"..............++..............",
"..............................",
"..............................",
"..............................",
"..............................",
"..............................",
"..............................",
"..............................",
"..............................",
"..............................",
".............................."};
