/* XPM */
static char * close_inactive_xpm[] = {
"30 30 14 1",
" 	c None",
".	c #3560A0",
"+	c #567AAF",
"@	c #7794BE",
"#	c #3661A0",
"$	c #7592BE",
"%	c #587CB0",
"&	c #7593BE",
"*	c #99AFCF",
"=	c #7995C0",
"-	c #7693BE",
";	c #7895BF",
">	c #7794BF",
",	c #7996C0",
"..............................",
"..............................",
"..............................",
"..............................",
"..............................",
"..............................",
"..............................",
"..............................",
"..............................",
"..............................",
"..........+@#.....$%..........",
"..........&*=#..#=*&..........",
"...........&*=#.-*;#..........",
"............&*=>*;#...........",
".............-**=#............",
".............-**,#............",
"............&*=-*;#...........",
"...........&*=#.-*;#..........",
"..........&*=#..#=*&..........",
"..........+>#....#@+..........",
"..............................",
"..............................",
"..............................",
"..............................",
"..............................",
"..............................",
"..............................",
"..............................",
"..............................",
".............................."};
