/* XPM */
static char * hide_inactive_xpm[] = {
"30 30 3 1",
" 	c None",
".	c #3560A0",
"+	c #9AAFCF",
"..............................",
"..............................",
"..............................",
"..............................",
"..............................",
"..............................",
"..............................",
"..............................",
"..............................",
"..............................",
"..............................",
"..............................",
"..............................",
"..............................",
"..........++++++++++..........",
"..........++++++++++..........",
"..............................",
"..............................",
"..............................",
"..............................",
"..............................",
"..............................",
"..............................",
"..............................",
"..............................",
"..............................",
"..............................",
"..............................",
"..............................",
".............................."};
