/* XPM */
static char * close_pressed_xpm[] = {
"30 30 18 1",
" 	c None",
".	c #2AC38A",
"+	c #89D3AF",
"@	c #B7E1CB",
"#	c #37C48D",
"$	c #31C48B",
"%	c #B5E0CA",
"&	c #8DD4B1",
"*	c #B5E1C9",
"=	c #DBEFE4",
"-	c #B9E2CD",
";	c #B5E1CA",
">	c #B9E2CC",
",	c #34C48C",
"'	c #B7E1CA",
")	c #BAE2CD",
"!	c #B6E1CA",
"~	c #8AD3AF",
"..............................",
"..............................",
"..............................",
"..............................",
"..............................",
"..............................",
"..............................",
"..............................",
"..............................",
"..........+@#....$%&..........",
"..........*=-#..#-=;..........",
"..........$*=-#$@=>,..........",
"...........$*=-@=>,...........",
"............$'==-,............",
"............$@==)#............",
"...........$!=-'=>,...........",
"..........$;=-#$'=>,..........",
"..........;=-#..#-=*..........",
"..........~@#....#@~..........",
"..............................",
"..............................",
"..............................",
"..............................",
"..............................",
"..............................",
"..............................",
"..............................",
"..............................",
"..............................",
".............................."};
