/* XPM */
static char * close_inactive_xpm[] = {
"30 30 17 1",
" 	c None",
".	c #570000",
"+	c #722A2A",
"@	c #8E5453",
"#	c #580202",
"$	c #570101",
"%	c #8C5151",
"&	c #742D2D",
"*	c #8D5251",
"=	c #AA7F7F",
"-	c #8F5656",
";	c #8D5252",
">	c #8D5353",
",	c #8F5555",
"'	c #8E5454",
")	c #8D5352",
"!	c #905757",
"..............................",
"..............................",
"..............................",
"..............................",
"..............................",
"..............................",
"..............................",
"..............................",
"..............................",
"..............................",
"..........+@#....$%&..........",
"..........*=-#..#-=;..........",
"..........$*=-#$>=,#..........",
"...........$*=-'=,#...........",
"............$)==-#............",
"............$>==!#............",
"...........$;=-)=,#...........",
"..........$;=-#$)=,#..........",
"..........;=-#..#-=*..........",
"..........+'#....#@+..........",
"..............................",
"..............................",
"..............................",
"..............................",
"..............................",
"..............................",
"..............................",
"..............................",
"..............................",
".............................."};
