/* XPM */
static char * close_prelight_xpm[] = {
"30 30 21 1",
" 	c None",
".	c #DC4FAD",
"+	c #E788C8",
"@	c #F3C2E2",
"#	c #DC52AE",
"$	c #DC51AD",
"%	c #F2BFE1",
"&	c #E88DCA",
"*	c #F2C0E1",
"=	c #FFFFFF",
"-	c #F3C5E4",
";	c #F3C6E4",
">	c #F2C1E2",
",	c #F3C5E3",
"'	c #DC51AE",
")	c #F3C2E3",
"!	c #F2C1E1",
"~	c #F3C7E4",
"{	c #F2C0E2",
"]	c #F2C2E2",
"^	c #E789C8",
"..............................",
"..............................",
"..............................",
"..............................",
"..............................",
"..............................",
"..............................",
"..............................",
"..............................",
"..........+@#....$%&..........",
"..........*=-#..#-=*..........",
"..........$*=;#$>=,'..........",
"...........$*=;)=,'...........",
"............$!==;'............",
"............$>==~#............",
"...........${=;]=,'...........",
"..........$*=-#$!=,'..........",
"..........*=-#..#-=*..........",
"..........^)#....#@^..........",
"..............................",
"..............................",
"..............................",
"..............................",
"..............................",
"..............................",
"..............................",
"..............................",
"..............................",
"..............................",
".............................."};
