/* XPM */
static char * maximize_inactive_xpm[] = {
"30 30 3 1",
" 	c None",
".	c #3CB371",
"+	c #9DD9B8",
"..............................",
"..............................",
"..............................",
"..............................",
"..............................",
"..............................",
"..............................",
"..............................",
"..............................",
"..............................",
"..............++..............",
"..............++..............",
"..............++..............",
"..............++..............",
"..........++++++++++..........",
"..........++++++++++..........",
"..............++..............",
"..............++..............",
"..............++..............",
"..............++..............",
"..............................",
"..............................",
"..............................",
"..............................",
"..............................",
"..............................",
"..............................",
"..............................",
"..............................",
".............................."};
